EESchema Schematic File Version 4
LIBS:pqws-main-hw-cache
EELAYER 26 0
EELAYER END
$Descr A4 11693 8268
encoding utf-8
Sheet 4 6
Title "PQWS Main board - Data logging"
Date "2017-12-05"
Rev ""
Comp "Libre Space Foundation"
Comment1 ""
Comment2 ""
Comment3 ""
Comment4 ""
$EndDescr
Text HLabel 3100 3000 0    60   Input ~ 0
CMD
Text HLabel 3100 3200 0    60   Input ~ 0
CLK
Text HLabel 3100 3400 0    60   Input ~ 0
D0
Text HLabel 3100 3500 0    60   Input ~ 0
D1
Text HLabel 3100 2800 0    60   Input ~ 0
D2
Text HLabel 3100 2900 0    60   Input ~ 0
D3
$Comp
L Connector:Micro_SD_Card_Det_Hirose_DM3AT J1
U 1 1 5A286C02
P 5800 3200
F 0 "J1" H 5150 3900 50  0000 C CNN
F 1 "Micro_SD_Card_Det_Hirose_DM3AT" H 6350 2450 50  0000 R CNN
F 2 "Connector_Card:microSD_HC_Hirose_DM3D-SF" H 7850 3900 50  0001 C CNN
F 3 "" H 5800 3300 50  0001 C CNN
F 4 "DM3D-SF" H 0   0   50  0001 C CNN "Part Number"
	1    5800 3200
	1    0    0    -1  
$EndComp
Wire Wire Line
	3100 3200 4900 3200
Wire Wire Line
	3100 3500 4100 3500
$Comp
L power:GND #PWR029
U 1 1 5A286D53
P 4750 3800
F 0 "#PWR029" H 4750 3550 50  0001 C CNN
F 1 "GND" H 4750 3650 50  0000 C CNN
F 2 "" H 4750 3800 50  0001 C CNN
F 3 "" H 4750 3800 50  0001 C CNN
	1    4750 3800
	1    0    0    -1  
$EndComp
Wire Wire Line
	4900 3700 4750 3700
Wire Wire Line
	4750 3700 4750 3800
$Comp
L power:GND #PWR030
U 1 1 5A286D89
P 6600 3700
F 0 "#PWR030" H 6600 3450 50  0001 C CNN
F 1 "GND" H 6600 3550 50  0000 C CNN
F 2 "" H 6600 3700 50  0001 C CNN
F 3 "" H 6600 3700 50  0001 C CNN
	1    6600 3700
	1    0    0    -1  
$EndComp
Text HLabel 4000 3600 0    60   Input ~ 0
SD_DET
Wire Wire Line
	4000 3600 4200 3600
$Comp
L power:VCC #PWR031
U 1 1 5A85AC75
P 2450 2550
F 0 "#PWR031" H 2450 2400 50  0001 C CNN
F 1 "VCC" H 2467 2723 50  0000 C CNN
F 2 "" H 2450 2550 50  0001 C CNN
F 3 "" H 2450 2550 50  0001 C CNN
	1    2450 2550
	1    0    0    -1  
$EndComp
Wire Wire Line
	3100 3400 4000 3400
Wire Wire Line
	2450 3100 4900 3100
$Comp
L power:VCC #PWR055
U 1 1 5A9021FE
P 4400 2050
F 0 "#PWR055" H 4400 1900 50  0001 C CNN
F 1 "VCC" H 4417 2223 50  0000 C CNN
F 2 "" H 4400 2050 50  0001 C CNN
F 3 "" H 4400 2050 50  0001 C CNN
	1    4400 2050
	1    0    0    -1  
$EndComp
Wire Wire Line
	4400 2050 4400 2200
$Comp
L Device:L L15
U 1 1 5A91484A
P 2450 2800
F 0 "L15" H 2503 2846 50  0000 L CNN
F 1 "470nH" H 2503 2755 50  0000 L CNN
F 2 "Inductor_SMD:L_0603_1608Metric_Pad0.84x1.00mm_HandSolder" H 2450 2800 50  0001 C CNN
F 3 "~" H 2450 2800 50  0001 C CNN
F 4 "DFE18SANR47ME0L" H 0   0   50  0001 C CNN "Part Number"
	1    2450 2800
	1    0    0    -1  
$EndComp
$Comp
L Device:C C33
U 1 1 5A914A42
P 2450 3400
F 0 "C33" H 2565 3446 50  0000 L CNN
F 1 "22uF" H 2565 3355 50  0000 L CNN
F 2 "Capacitor_SMD:C_0603_1608Metric_Pad0.84x1.00mm_HandSolder" H 2488 3250 50  0001 C CNN
F 3 "~" H 2450 3400 50  0001 C CNN
F 4 "GRT188R60J226ME13D" H 0   0   50  0001 C CNN "Part Number"
	1    2450 3400
	1    0    0    -1  
$EndComp
$Comp
L Device:C C32
U 1 1 5A914A66
P 1950 3400
F 0 "C32" H 2065 3446 50  0000 L CNN
F 1 "22uF" H 2065 3355 50  0000 L CNN
F 2 "Capacitor_SMD:C_0603_1608Metric_Pad0.84x1.00mm_HandSolder" H 1988 3250 50  0001 C CNN
F 3 "~" H 1950 3400 50  0001 C CNN
F 4 "GRT188R60J226ME13D" H 0   0   50  0001 C CNN "Part Number"
	1    1950 3400
	1    0    0    -1  
$EndComp
Wire Wire Line
	4900 3300 4750 3300
Wire Wire Line
	4750 3300 4750 3700
Connection ~ 4750 3700
$Comp
L power:GND #PWR050
U 1 1 5A914DE8
P 2450 3650
F 0 "#PWR050" H 2450 3400 50  0001 C CNN
F 1 "GND" H 2450 3500 50  0000 C CNN
F 2 "" H 2450 3650 50  0001 C CNN
F 3 "" H 2450 3650 50  0001 C CNN
	1    2450 3650
	1    0    0    -1  
$EndComp
$Comp
L power:GND #PWR028
U 1 1 5A914E05
P 1950 3650
F 0 "#PWR028" H 1950 3400 50  0001 C CNN
F 1 "GND" H 1950 3500 50  0000 C CNN
F 2 "" H 1950 3650 50  0001 C CNN
F 3 "" H 1950 3650 50  0001 C CNN
	1    1950 3650
	1    0    0    -1  
$EndComp
Wire Wire Line
	2450 2950 2450 3100
Connection ~ 2450 3100
Wire Wire Line
	2450 3100 2450 3250
Wire Wire Line
	1950 3250 2450 3250
Connection ~ 2450 3250
Wire Wire Line
	2450 3550 2450 3650
Wire Wire Line
	1950 3550 1950 3650
Wire Wire Line
	2450 2550 2450 2650
$Comp
L power:VCC #PWR056
U 1 1 5A91E75F
P 3700 2050
F 0 "#PWR056" H 3700 1900 50  0001 C CNN
F 1 "VCC" H 3717 2223 50  0000 C CNN
F 2 "" H 3700 2050 50  0001 C CNN
F 3 "" H 3700 2050 50  0001 C CNN
	1    3700 2050
	1    0    0    -1  
$EndComp
Wire Wire Line
	3700 2050 3700 2200
Text Label 2550 3100 0    50   ~ 0
SD_VDD
$Comp
L power:PWR_FLAG #FLG04
U 1 1 5A91A1E2
P 2450 3100
F 0 "#FLG04" H 2450 3175 50  0001 C CNN
F 1 "PWR_FLAG" V 2450 3228 50  0000 L CNN
F 2 "" H 2450 3100 50  0001 C CNN
F 3 "" H 2450 3100 50  0001 C CNN
	1    2450 3100
	0    -1   -1   0   
$EndComp
$Comp
L lsd-kicad:RN U9
U 1 1 5ADEB0CF
P 4050 2400
F 0 "U9" H 4488 2446 50  0000 L CNN
F 1 "47K" H 4488 2355 50  0000 L CNN
F 2 "lsf-kicad-lib:EXBD" H 4050 2400 50  0001 C CNN
F 3 "https://industrial.panasonic.com/cdbs/www-data/pdf/AOC0000/AOC0000C12.pdf" H 4050 2400 50  0001 C CNN
F 4 "EXBD10C473J" H 4050 2400 50  0001 C CNN "Part Number"
	1    4050 2400
	1    0    0    -1  
$EndComp
Wire Wire Line
	3100 3000 3900 3000
Wire Wire Line
	3100 2900 3800 2900
Wire Wire Line
	3100 2800 3700 2800
Wire Wire Line
	3700 2600 3700 2800
Connection ~ 3700 2800
Wire Wire Line
	3700 2800 4900 2800
Wire Wire Line
	3800 2600 3800 2900
Connection ~ 3800 2900
Wire Wire Line
	3800 2900 4900 2900
Wire Wire Line
	3900 2600 3900 3000
Connection ~ 3900 3000
Wire Wire Line
	3900 3000 4900 3000
Wire Wire Line
	4000 2600 4000 3400
Connection ~ 4000 3400
Wire Wire Line
	4000 3400 4900 3400
Wire Wire Line
	4100 2600 4100 3500
Connection ~ 4100 3500
Wire Wire Line
	4100 3500 4900 3500
Wire Wire Line
	4200 2600 4200 3600
Connection ~ 4200 3600
Wire Wire Line
	4200 3600 4900 3600
NoConn ~ 4400 2600
NoConn ~ 4300 2600
$EndSCHEMATC
