EESchema Schematic File Version 4
LIBS:pqws-main-hw-cache
EELAYER 26 0
EELAYER END
$Descr A4 11693 8268
encoding utf-8
Sheet 1 6
Title "PQWS Main board"
Date "2017-12-05"
Rev ""
Comp "Libre Space Foundation"
Comment1 ""
Comment2 ""
Comment3 ""
Comment4 ""
$EndDescr
$Sheet
S 3350 3100 1250 1050
U 5A285DD6
F0 "Radio" 60
F1 "Radio.sch" 60
F2 "RF_Tx_EN" I R 4600 3200 60 
F3 "RF_MISO" I R 4600 3350 60 
F4 "RF_MOSI" I R 4600 3500 60 
F5 "RF_SCK" I R 4600 3650 60 
F6 "RF_IRQ" I R 4600 3800 60 
F7 "PA_PDet" I R 4600 4000 50 
$EndSheet
$Sheet
S 3350 1450 1250 1300
U 5A285E0E
F0 "Data Logging" 60
F1 "Data_logging.sch" 60
F2 "CMD" I R 4600 1600 60 
F3 "CLK" I R 4600 1750 60 
F4 "D0" I R 4600 1900 60 
F5 "D1" I R 4600 2050 60 
F6 "D2" I R 4600 2200 60 
F7 "D3" I R 4600 2350 60 
F8 "SD_DET" I R 4600 2500 60 
$EndSheet
$Sheet
S 5350 1450 1950 3350
U 5A285DD1
F0 "MCU" 60
F1 "MCU.sch" 60
F2 "RxD" I R 7300 3350 60 
F3 "TxD" I R 7300 3450 60 
F4 "CMD" I L 5350 1600 60 
F5 "CLK" I L 5350 1750 60 
F6 "D0" I L 5350 1900 60 
F7 "D1" I L 5350 2050 60 
F8 "D2" I L 5350 2200 60 
F9 "D3" I L 5350 2350 60 
F10 "SD_DET" I L 5350 2500 60 
F11 "RF_Tx_EN" I L 5350 3200 60 
F12 "RF_MISO" I L 5350 3350 60 
F13 "RF_MOSI" I L 5350 3500 60 
F14 "RF_SCK" I L 5350 3650 60 
F15 "RF_IRQ" I L 5350 3800 60 
F16 "CAN1TX" I R 7300 2100 60 
F17 "CAN1RX" I R 7300 2200 60 
F18 "CAN1_EN" I R 7300 2300 60 
F19 "DD" I R 7300 3550 50 
F20 "RST_TRIG" I R 7300 2750 50 
F21 "SWDIO" I R 7300 4300 50 
F22 "SWCLK" I R 7300 4100 50 
F23 "JTDI" I R 7300 4600 50 
F24 "JTDO" I R 7300 4500 50 
F25 "JTRST" I R 7300 4700 50 
F26 "PA_PDet" I L 5350 4000 50 
F27 "NRST" I R 7300 4400 50 
$EndSheet
Wire Wire Line
	4600 1600 5350 1600
Wire Wire Line
	5350 1750 4600 1750
Wire Wire Line
	4600 1900 5350 1900
Wire Wire Line
	5350 2050 4600 2050
Wire Wire Line
	5350 2200 4600 2200
Wire Wire Line
	4600 2350 5350 2350
Wire Wire Line
	5350 2500 4600 2500
$Sheet
S 8400 1450 1050 1400
U 5A289551
F0 "PQ Bus" 60
F1 "PQ_Bus.sch" 60
F2 "RST" I L 8400 2750 60 
F3 "CAN1TX" I L 8400 2100 60 
F4 "CAN1RX" I L 8400 2200 60 
F5 "CanEn" I L 8400 2300 60 
$EndSheet
Wire Wire Line
	4600 3200 5350 3200
Wire Wire Line
	5350 3350 4600 3350
Wire Wire Line
	4600 3500 5350 3500
Wire Wire Line
	5350 3650 4600 3650
Wire Wire Line
	4600 3800 5350 3800
Wire Wire Line
	7300 2100 8400 2100
Wire Wire Line
	8400 2200 7300 2200
Wire Wire Line
	7300 2300 8400 2300
$Comp
L power:VCC #PWR042
U 1 1 5A878351
P 10300 1000
F 0 "#PWR042" H 10300 850 50  0001 C CNN
F 1 "VCC" H 10300 1150 50  0000 C CNN
F 2 "" H 10300 1000 50  0001 C CNN
F 3 "" H 10300 1000 50  0001 C CNN
	1    10300 1000
	1    0    0    -1  
$EndComp
$Comp
L power:PWR_FLAG #FLG02
U 1 1 5A878357
P 10300 1200
F 0 "#FLG02" H 10300 1275 50  0001 C CNN
F 1 "PWR_FLAG" H 10300 1350 50  0000 C CNN
F 2 "" H 10300 1200 50  0001 C CNN
F 3 "" H 10300 1200 50  0001 C CNN
	1    10300 1200
	-1   0    0    1   
$EndComp
Wire Wire Line
	10300 1000 10300 1200
$Comp
L power:GND #PWR049
U 1 1 5A8785D3
P 10800 1200
F 0 "#PWR049" H 10800 950 50  0001 C CNN
F 1 "GND" H 10805 1027 50  0000 C CNN
F 2 "" H 10800 1200 50  0001 C CNN
F 3 "" H 10800 1200 50  0001 C CNN
	1    10800 1200
	1    0    0    -1  
$EndComp
$Comp
L power:PWR_FLAG #FLG03
U 1 1 5A878605
P 10800 1000
F 0 "#FLG03" H 10800 1075 50  0001 C CNN
F 1 "PWR_FLAG" H 10800 1174 50  0000 C CNN
F 2 "" H 10800 1000 50  0001 C CNN
F 3 "" H 10800 1000 50  0001 C CNN
	1    10800 1000
	1    0    0    -1  
$EndComp
Wire Wire Line
	10800 1000 10800 1200
Wire Wire Line
	7300 2750 8400 2750
$Comp
L Connector_Generic:Conn_01x04 J3
U 1 1 5A8765CF
P 7950 3450
F 0 "J3" H 8030 3492 50  0000 L CNN
F 1 "RS485" H 8030 3401 50  0000 L CNN
F 2 "Connector_JST:JST_SH_SM04B-SRSS-TB_1x04-1MP_P1.00mm_Horizontal" H 7950 3450 50  0001 C CNN
F 3 "~" H 7950 3450 50  0001 C CNN
F 4 "SM04B-SRSS-TB" H 0   0   50  0001 C CNN "Part Number"
	1    7950 3450
	1    0    0    -1  
$EndComp
$Comp
L Connector_Generic:Conn_01x04 J4
U 1 1 5A943331
P 7950 4200
F 0 "J4" H 8030 4192 50  0000 L CNN
F 1 "SWD" H 8030 4101 50  0000 L CNN
F 2 "Connector_JST:JST_SH_SM04B-SRSS-TB_1x04-1MP_P1.00mm_Horizontal" H 7950 4200 50  0001 C CNN
F 3 "" H 7950 4200 50  0001 C CNN
F 4 "SM04B-SRSS-TB" H 0   0   50  0001 C CNN "Part Number"
F 5 "" H 7950 4200 50  0001 C CNN "Part"
	1    7950 4200
	1    0    0    -1  
$EndComp
$Comp
L power:GND #PWR059
U 1 1 5A945B9F
P 7650 4200
F 0 "#PWR059" H 7650 3950 50  0001 C CNN
F 1 "GND" V 7655 4072 50  0000 R CNN
F 2 "" H 7650 4200 50  0001 C CNN
F 3 "" H 7650 4200 50  0001 C CNN
	1    7650 4200
	0    1    1    0   
$EndComp
Wire Wire Line
	7650 4200 7750 4200
Wire Wire Line
	7750 4100 7300 4100
Wire Wire Line
	7300 4300 7750 4300
Wire Wire Line
	7750 4400 7300 4400
NoConn ~ 7300 4500
NoConn ~ 7300 4600
Wire Wire Line
	4600 4000 5350 4000
$Comp
L power:GND #PWR0104
U 1 1 5AE1B1AC
P 7650 3650
F 0 "#PWR0104" H 7650 3400 50  0001 C CNN
F 1 "GND" V 7655 3522 50  0000 R CNN
F 2 "" H 7650 3650 50  0001 C CNN
F 3 "" H 7650 3650 50  0001 C CNN
	1    7650 3650
	0    1    1    0   
$EndComp
Wire Wire Line
	7300 3550 7750 3550
Wire Wire Line
	7750 3450 7300 3450
Wire Wire Line
	7300 3350 7750 3350
Wire Wire Line
	7650 3650 7750 3650
NoConn ~ 7300 4700
$EndSCHEMATC
